digraph "vSingle.ImagemServer"
{
  edge [fontname="Helvetica",fontsize="10",labelfontname="Helvetica",labelfontsize="10"];
  node [fontname="Helvetica",fontsize="10",shape=record];
  Node1 [label="vSingle.ImagemServer",height=0.2,width=0.4,color="black", fillcolor="grey75", style="filled" fontcolor="black"];
  Node2 -> Node1 [dir="back",color="midnightblue",fontsize="10",style="solid"];
  Node2 [label="UnicastRemoteObject",height=0.2,width=0.4,color="grey75", fillcolor="white", style="filled"];
  Node3 -> Node1 [dir="back",color="midnightblue",fontsize="10",style="solid"];
  Node3 [label="vSingle.Imagem",height=0.2,width=0.4,color="black", fillcolor="white", style="filled",URL="$interfacevSingle_1_1Imagem.html"];
  Node4 -> Node3 [dir="back",color="midnightblue",fontsize="10",style="solid"];
  Node4 [label="Remote",height=0.2,width=0.4,color="grey75", fillcolor="white", style="filled"];
}
